[ {
  "id" : "75497864-0037-7558-6d8a-02b745fc9044",
  "name" : "style",
  "display_width" : null,
  "label" : "Style",
  "required" : false,
  "locked" : false,
  "children" : [ {
    "id" : "3286c96f-cf0a-ef27-0cd2-4f00084b384d",
    "name" : "section_show_hide_",
    "display_width" : null,
    "label" : "Section [ Show | Hide ]",
    "required" : false,
    "locked" : false,
    "display" : "checkbox",
    "type" : "boolean",
    "default" : true
  }, {
    "id" : "b689f769-5520-25b7-8b47-6a0f75b5bba6",
    "name" : "section_background",
    "display_width" : null,
    "label" : "Section Background",
    "required" : false,
    "locked" : false,
    "type" : "gradient",
    "default" : { }
  }, {
    "id" : "10a8cd34-879e-0192-9acc-1112ccb32e83",
    "name" : "desktop_spacing",
    "display_width" : null,
    "label" : "Desktop Spacing",
    "required" : false,
    "locked" : false,
    "type" : "spacing",
    "default" : {
      "padding" : {
        "top" : {
          "value" : 25,
          "units" : "px"
        },
        "bottom" : {
          "value" : null,
          "units" : null
        },
        "left" : {
          "value" : null,
          "units" : null
        },
        "right" : {
          "value" : null,
          "units" : null
        }
      }
    }
  }, {
    "id" : "7f2f1ffd-2075-d57d-5982-23b86d8bd177",
    "name" : "tablet_spacing",
    "display_width" : null,
    "label" : "Tablet Spacing",
    "required" : false,
    "locked" : false,
    "type" : "spacing",
    "default" : { }
  }, {
    "id" : "adf6e404-3d20-1978-2ddb-c771c6001729",
    "name" : "mobile_spacing",
    "display_width" : null,
    "label" : "Mobile Spacing",
    "required" : false,
    "locked" : false,
    "type" : "spacing",
    "default" : { }
  }, {
    "id" : "fab2ac7c-2df9-9de9-783c-0b90f8655c1b",
    "name" : "color_settings",
    "display_width" : null,
    "label" : "Color Settings",
    "required" : false,
    "locked" : false,
    "children" : [ {
      "id" : "10b921cc-5055-13ac-854d-a42cf447157e",
      "name" : "title_color",
      "display_width" : null,
      "label" : "Title Color",
      "required" : false,
      "locked" : false,
      "type" : "color",
      "default" : {
        "color" : "#edbd3c",
        "opacity" : 100
      }
    }, {
      "id" : "54d7774d-ef7f-21e8-eb7d-779e1d282992",
      "name" : "paragraph_text_color",
      "display_width" : null,
      "label" : "Paragraph Text Color",
      "required" : false,
      "locked" : false,
      "type" : "color",
      "default" : {
        "color" : null,
        "opacity" : null
      }
    } ],
    "tab" : "STYLE",
    "expanded" : false,
    "type" : "group",
    "default" : {
      "title_color" : {
        "color" : "#edbd3c",
        "opacity" : 100
      },
      "paragraph_text_color" : {
        "color" : null,
        "opacity" : null
      }
    }
  } ],
  "tab" : "STYLE",
  "expanded" : false,
  "type" : "group",
  "default" : {
    "section_show_hide_" : true,
    "section_background" : { },
    "desktop_spacing" : {
      "padding" : {
        "top" : {
          "value" : 25,
          "units" : "px"
        },
        "bottom" : {
          "value" : null,
          "units" : null
        },
        "left" : {
          "value" : null,
          "units" : null
        },
        "right" : {
          "value" : null,
          "units" : null
        }
      }
    },
    "tablet_spacing" : { },
    "mobile_spacing" : { },
    "color_settings" : {
      "title_color" : {
        "color" : "#edbd3c",
        "opacity" : 100
      },
      "paragraph_text_color" : {
        "color" : null,
        "opacity" : null
      }
    }
  }
}, {
  "id" : "d20e869d-216e-12af-3344-5796229e8078",
  "name" : "rows",
  "display_width" : null,
  "label" : "Rows",
  "required" : false,
  "locked" : false,
  "occurrence" : {
    "min" : null,
    "max" : null,
    "sorting_label_field" : null,
    "default" : null
  },
  "children" : [ {
    "id" : "59460029-272c-d62b-811f-a6428cdeaa0b",
    "name" : "title",
    "display_width" : null,
    "label" : "Title",
    "required" : false,
    "locked" : false,
    "validation_regex" : "",
    "allow_new_line" : false,
    "show_emoji_picker" : false,
    "type" : "text",
    "default" : "KOMATSU"
  }, {
    "id" : "ef4cee73-640f-abac-d882-027811ac8ebe",
    "name" : "columns",
    "display_width" : null,
    "label" : "Columns",
    "required" : false,
    "locked" : false,
    "occurrence" : {
      "min" : null,
      "max" : null,
      "sorting_label_field" : null,
      "default" : null
    },
    "children" : [ {
      "id" : "2337d221-2c53-506e-57a0-62b0358c3ba7",
      "name" : "poster_image",
      "display_width" : null,
      "label" : "Poster Image",
      "required" : false,
      "locked" : false,
      "responsive" : true,
      "resizable" : true,
      "show_loading" : false,
      "type" : "image",
      "default" : {
        "size_type" : "auto",
        "src" : "https://4079460.fs1.hubspotusercontent-na1.net/hubfs/4079460/Assets%20ESS%20Theme%20-%202022/Images/hqdefault1.jpg",
        "alt" : "hqdefault1",
        "loading" : "lazy",
        "width" : 480,
        "height" : 360,
        "max_width" : 480,
        "max_height" : 360
      }
    }, {
      "id" : "2781d82b-26e3-409a-da2c-d58b8521a7d0",
      "name" : "select_video_type",
      "display_width" : null,
      "label" : "Select Video Type",
      "required" : false,
      "locked" : false,
      "display" : "select",
      "choices" : [ [ "youtube_video", "Youtube" ], [ "vimeo_video", "Vimeo" ], [ "mp4_video", "MP4" ], [ "external_video", "External Video Link" ] ],
      "multiple" : false,
      "reordering_enabled" : true,
      "preset" : null,
      "type" : "choice",
      "default" : "external_video"
    }, {
      "id" : "053945c3-5d51-0a44-0915-12dcd8155c2e",
      "name" : "youtube_url",
      "display_width" : null,
      "label" : "Youtube url",
      "help_text" : "Ex  - 'https://www.youtube.com/watch?v=Q6Ee_KZEs0E&t=35s'",
      "required" : false,
      "locked" : false,
      "validation_regex" : "",
      "visibility" : {
        "controlling_field" : "2781d82b-26e3-409a-da2c-d58b8521a7d0",
        "controlling_field_path" : null,
        "controlling_value_regex" : "youtube_video",
        "property" : null,
        "operator" : "MATCHES_REGEX",
        "access" : null
      },
      "allow_new_line" : false,
      "show_emoji_picker" : false,
      "type" : "text"
    }, {
      "id" : "1b433938-e5a8-0778-788e-99eba68aa12d",
      "name" : "vimeo_id",
      "display_width" : null,
      "label" : "Vimeo ID",
      "help_text" : "Ex  - '191947042'",
      "required" : false,
      "locked" : false,
      "validation_regex" : "",
      "visibility" : {
        "controlling_field" : "2781d82b-26e3-409a-da2c-d58b8521a7d0",
        "controlling_field_path" : null,
        "controlling_value_regex" : "vimeo_video",
        "property" : null,
        "operator" : "MATCHES_REGEX",
        "access" : null
      },
      "allow_new_line" : false,
      "show_emoji_picker" : false,
      "type" : "text"
    }, {
      "id" : "b3591cb8-0763-5087-6e6b-47ada6c5a6d0",
      "name" : "mp4_url",
      "display_width" : null,
      "label" : "MP4 url",
      "help_text" : "Ex  - 'video.mp4'",
      "required" : false,
      "locked" : false,
      "validation_regex" : "",
      "visibility" : {
        "controlling_field" : "2781d82b-26e3-409a-da2c-d58b8521a7d0",
        "controlling_field_path" : null,
        "controlling_value_regex" : "mp4_video",
        "property" : null,
        "operator" : "MATCHES_REGEX",
        "access" : null
      },
      "allow_new_line" : false,
      "show_emoji_picker" : false,
      "type" : "text"
    }, {
      "id" : "80d5b4c0-6b95-a1f3-0d24-b79ef3d30eb8",
      "name" : "video_external_link",
      "display_width" : null,
      "label" : "Video External Link",
      "required" : false,
      "locked" : false,
      "visibility" : {
        "controlling_field" : "2781d82b-26e3-409a-da2c-d58b8521a7d0",
        "controlling_field_path" : null,
        "controlling_value_regex" : "external_video",
        "property" : null,
        "operator" : "MATCHES_REGEX",
        "access" : null
      },
      "supported_types" : [ "EXTERNAL", "CONTENT", "FILE", "EMAIL_ADDRESS", "BLOG" ],
      "show_advanced_rel_options" : false,
      "type" : "link",
      "default" : {
        "url" : {
          "content_id" : null,
          "type" : "EXTERNAL",
          "href" : ""
        },
        "open_in_new_tab" : false,
        "no_follow" : false
      }
    } ],
    "tab" : "CONTENT",
    "expanded" : false,
    "type" : "group",
    "default" : {
      "poster_image" : {
        "size_type" : "auto",
        "src" : "https://4079460.fs1.hubspotusercontent-na1.net/hubfs/4079460/Assets%20ESS%20Theme%20-%202022/Images/hqdefault1.jpg",
        "alt" : "hqdefault1",
        "loading" : "lazy",
        "width" : 480,
        "height" : 360,
        "max_width" : 480,
        "max_height" : 360
      },
      "select_video_type" : "external_video",
      "video_external_link" : {
        "url" : {
          "content_id" : null,
          "type" : "EXTERNAL",
          "href" : ""
        },
        "open_in_new_tab" : false,
        "no_follow" : false
      }
    }
  }, {
    "id" : "6444e6a7-8fd6-b34a-13b6-10dee8080ae0",
    "name" : "top_spacing",
    "display_width" : null,
    "label" : "Top Spacing",
    "required" : false,
    "locked" : false,
    "display" : "text",
    "step" : 1,
    "type" : "number",
    "default" : 25
  }, {
    "id" : "0d364b89-4640-0b86-f9cb-024b5ea266f1",
    "name" : "bottom_spacing",
    "display_width" : null,
    "label" : "Bottom Spacing",
    "required" : false,
    "locked" : false,
    "display" : "text",
    "step" : 1,
    "type" : "number",
    "default" : 25
  } ],
  "tab" : "CONTENT",
  "expanded" : false,
  "type" : "group",
  "default" : {
    "title" : "KOMATSU",
    "columns" : {
      "poster_image" : {
        "size_type" : "auto",
        "src" : "https://4079460.fs1.hubspotusercontent-na1.net/hubfs/4079460/Assets%20ESS%20Theme%20-%202022/Images/hqdefault1.jpg",
        "alt" : "hqdefault1",
        "loading" : "lazy",
        "width" : 480,
        "height" : 360,
        "max_width" : 480,
        "max_height" : 360
      },
      "select_video_type" : "external_video",
      "video_external_link" : {
        "url" : {
          "content_id" : null,
          "type" : "EXTERNAL",
          "href" : ""
        },
        "open_in_new_tab" : false,
        "no_follow" : false
      }
    },
    "top_spacing" : 25,
    "bottom_spacing" : 25
  }
} ]