[ {
  "id" : "75497864-0037-7558-6d8a-02b745fc9044",
  "name" : "style",
  "display_width" : null,
  "label" : "Style",
  "required" : false,
  "locked" : false,
  "children" : [ {
    "id" : "3286c96f-cf0a-ef27-0cd2-4f00084b384d",
    "name" : "section_show_hide_",
    "display_width" : null,
    "label" : "Section [ Show | Hide ]",
    "required" : false,
    "locked" : false,
    "display" : "checkbox",
    "type" : "boolean",
    "default" : true
  }, {
    "id" : "b689f769-5520-25b7-8b47-6a0f75b5bba6",
    "name" : "section_background",
    "display_width" : null,
    "label" : "Section Background",
    "required" : false,
    "locked" : true,
    "type" : "gradient",
    "default" : { }
  }, {
    "id" : "10a8cd34-879e-0192-9acc-1112ccb32e83",
    "name" : "desktop_spacing",
    "display_width" : null,
    "label" : "Desktop Spacing",
    "required" : false,
    "locked" : false,
    "type" : "spacing",
    "default" : { }
  }, {
    "id" : "7f2f1ffd-2075-d57d-5982-23b86d8bd177",
    "name" : "tablet_spacing",
    "display_width" : null,
    "label" : "Tablet Spacing",
    "required" : false,
    "locked" : false,
    "type" : "spacing",
    "default" : { }
  }, {
    "id" : "adf6e404-3d20-1978-2ddb-c771c6001729",
    "name" : "mobile_spacing",
    "display_width" : null,
    "label" : "Mobile Spacing",
    "required" : false,
    "locked" : false,
    "type" : "spacing",
    "default" : { }
  }, {
    "id" : "fab2ac7c-2df9-9de9-783c-0b90f8655c1b",
    "name" : "color_settings",
    "display_width" : null,
    "label" : "Color Settings",
    "required" : false,
    "locked" : false,
    "children" : [ {
      "id" : "10b921cc-5055-13ac-854d-a42cf447157e",
      "name" : "title_color",
      "display_width" : null,
      "label" : "Title Color",
      "required" : false,
      "locked" : false,
      "type" : "color",
      "default" : {
        "color" : "#fff",
        "opacity" : 100
      }
    }, {
      "id" : "54d7774d-ef7f-21e8-eb7d-779e1d282992",
      "name" : "paragraph_text_color",
      "display_width" : null,
      "label" : "Paragraph Text Color",
      "required" : false,
      "locked" : false,
      "type" : "color",
      "default" : {
        "color" : "#fff",
        "opacity" : 100
      }
    } ],
    "tab" : "STYLE",
    "expanded" : false,
    "type" : "group",
    "default" : {
      "title_color" : {
        "color" : "#fff",
        "opacity" : 100
      },
      "paragraph_text_color" : {
        "color" : "#fff",
        "opacity" : 100
      }
    }
  } ],
  "tab" : "STYLE",
  "expanded" : false,
  "type" : "group",
  "default" : {
    "section_show_hide_" : true,
    "section_background" : { },
    "desktop_spacing" : { },
    "tablet_spacing" : { },
    "mobile_spacing" : { },
    "color_settings" : {
      "title_color" : {
        "color" : "#fff",
        "opacity" : 100
      },
      "paragraph_text_color" : {
        "color" : "#fff",
        "opacity" : 100
      }
    }
  }
}, {
  "id" : "d7185a86-5383-6d4c-3ab7-2636ca9b915d",
  "name" : "slides",
  "display_width" : null,
  "label" : "Slides",
  "required" : false,
  "locked" : false,
  "occurrence" : {
    "min" : null,
    "max" : null,
    "sorting_label_field" : "8419833d-2354-0182-089e-e7fd245e47b6",
    "default" : 4
  },
  "children" : [ {
    "id" : "dc196e90-6244-a3d3-5332-e071ec19b29a",
    "name" : "overlay_show_hide_",
    "display_width" : null,
    "label" : "Overlay [ Show | Hide ]",
    "required" : false,
    "locked" : false,
    "display" : "checkbox",
    "type" : "boolean",
    "default" : true
  }, {
    "id" : "9e591a24-59b1-cadc-ff43-c71f10f6ba48",
    "name" : "background_image_slide_",
    "display_width" : null,
    "label" : "Background Image [ Slide ]",
    "required" : false,
    "locked" : false,
    "responsive" : true,
    "resizable" : false,
    "show_loading" : false,
    "type" : "image",
    "default" : {
      "src" : "https://4079460.fs1.hubspotusercontent-na1.net/hubfs/4079460/Assets%20ESS%20Theme%20-%202022/Images/3660589-min.png",
      "alt" : "3660589-min",
      "width" : 964,
      "height" : 676,
      "max_width" : 964,
      "max_height" : 676
    }
  }, {
    "id" : "8419833d-2354-0182-089e-e7fd245e47b6",
    "name" : "title",
    "display_width" : null,
    "label" : "Title",
    "required" : false,
    "locked" : false,
    "validation_regex" : "",
    "allow_new_line" : false,
    "show_emoji_picker" : false,
    "type" : "text"
  }, {
    "id" : "cefc1e33-ab74-3b71-f424-2cdbd0762024",
    "name" : "subtitle",
    "display_width" : null,
    "label" : "Subtitle",
    "required" : false,
    "locked" : false,
    "validation_regex" : "",
    "allow_new_line" : false,
    "show_emoji_picker" : false,
    "type" : "text",
    "default" : "Equipment Sales & Service Limited is your reliable equipment provider for construction, demolition, forestry and material handling equipment, parts, and service in Canada."
  }, {
    "id" : "ab0ed730-93e2-907e-d3bf-5799a1b9d895",
    "name" : "button_text",
    "display_width" : null,
    "label" : "Button Text",
    "required" : false,
    "locked" : false,
    "validation_regex" : "",
    "visibility" : {
      "controlling_field" : "b849abce-2a5c-8feb-4581-2ee1ea7717cd",
      "controlling_field_path" : null,
      "controlling_value_regex" : "false",
      "property" : null,
      "operator" : "EQUAL",
      "access" : null
    },
    "allow_new_line" : false,
    "show_emoji_picker" : false,
    "type" : "text",
    "default" : "Learn More"
  }, {
    "id" : "9b9fcd97-cc9f-204e-37b5-e4a7d31d5f2f",
    "name" : "button_link",
    "display_width" : null,
    "label" : "Button Link",
    "required" : false,
    "locked" : false,
    "visibility" : {
      "controlling_field" : "b849abce-2a5c-8feb-4581-2ee1ea7717cd",
      "controlling_field_path" : null,
      "controlling_value_regex" : "false",
      "property" : null,
      "operator" : "EQUAL",
      "access" : null
    },
    "supported_types" : [ "EXTERNAL", "CONTENT", "FILE", "EMAIL_ADDRESS", "BLOG" ],
    "show_advanced_rel_options" : false,
    "type" : "link",
    "default" : {
      "url" : {
        "content_id" : null,
        "type" : "EXTERNAL",
        "href" : ""
      },
      "open_in_new_tab" : false,
      "no_follow" : false
    }
  } ],
  "tab" : "CONTENT",
  "expanded" : false,
  "type" : "group",
  "default" : [ {
    "background_image_slide_" : {
      "src" : "https://4079460.fs1.hubspotusercontent-na1.net/hubfs/4079460/Assets%20ESS%20Theme%20-%202022/Images/3660589-min.png",
      "alt" : "3660589-min",
      "width" : 964,
      "height" : 676,
      "max_width" : 964,
      "max_height" : 676
    },
    "subtitle" : "Equipment Sales & Service Limited is your reliable equipment provider for construction, demolition, forestry and material handling equipment, parts, and service in Canada.",
    "button_text" : "Learn More",
    "button_link" : {
      "url" : {
        "content_id" : null,
        "type" : "EXTERNAL",
        "href" : ""
      },
      "open_in_new_tab" : false,
      "no_follow" : false
    },
    "overlay_show_hide_" : true
  }, {
    "background_image_slide_" : {
      "src" : "https://4079460.fs1.hubspotusercontent-na1.net/hubfs/4079460/Assets%20ESS%20Theme%20-%202022/Images/3660589-min.png",
      "alt" : "3660589-min",
      "width" : 964,
      "height" : 676,
      "max_width" : 964,
      "max_height" : 676
    },
    "subtitle" : "Equipment Sales & Service Limited is your reliable equipment provider for construction, demolition, forestry and material handling equipment, parts, and service in Canada.",
    "button_text" : "Learn More",
    "button_link" : {
      "url" : {
        "content_id" : null,
        "type" : "EXTERNAL",
        "href" : ""
      },
      "open_in_new_tab" : false,
      "no_follow" : false
    },
    "overlay_show_hide_" : true
  }, {
    "background_image_slide_" : {
      "src" : "https://4079460.fs1.hubspotusercontent-na1.net/hubfs/4079460/Assets%20ESS%20Theme%20-%202022/Images/3660589-min.png",
      "alt" : "3660589-min",
      "width" : 964,
      "height" : 676,
      "max_width" : 964,
      "max_height" : 676
    },
    "subtitle" : "Equipment Sales & Service Limited is your reliable equipment provider for construction, demolition, forestry and material handling equipment, parts, and service in Canada.",
    "button_text" : "Learn More",
    "button_link" : {
      "url" : {
        "content_id" : null,
        "type" : "EXTERNAL",
        "href" : ""
      },
      "open_in_new_tab" : false,
      "no_follow" : false
    },
    "overlay_show_hide_" : true
  }, {
    "background_image_slide_" : {
      "src" : "https://4079460.fs1.hubspotusercontent-na1.net/hubfs/4079460/Assets%20ESS%20Theme%20-%202022/Images/3660589-min.png",
      "alt" : "3660589-min",
      "width" : 964,
      "height" : 676,
      "max_width" : 964,
      "max_height" : 676
    },
    "subtitle" : "Equipment Sales & Service Limited is your reliable equipment provider for construction, demolition, forestry and material handling equipment, parts, and service in Canada.",
    "button_text" : "Learn More",
    "button_link" : {
      "url" : {
        "content_id" : null,
        "type" : "EXTERNAL",
        "href" : ""
      },
      "open_in_new_tab" : false,
      "no_follow" : false
    },
    "overlay_show_hide_" : true
  } ]
}, {
  "id" : "79fda75c-3012-0219-fe82-656d8d1c3e39",
  "name" : "button_color_settings",
  "display_width" : null,
  "label" : "Button Color Settings",
  "required" : false,
  "locked" : false,
  "visibility" : {
    "controlling_field" : "b849abce-2a5c-8feb-4581-2ee1ea7717cd",
    "controlling_field_path" : null,
    "controlling_value_regex" : "false",
    "property" : null,
    "operator" : "EQUAL",
    "access" : null
  },
  "children" : [ {
    "id" : "8e25efc6-c4fc-b303-1abb-dc767e0cbd15",
    "name" : "button_default_state",
    "display_width" : null,
    "label" : "Button Default State",
    "required" : false,
    "locked" : false,
    "children" : [ {
      "id" : "620be58e-9e90-7b27-072e-0139857117a7",
      "name" : "button_background_color",
      "display_width" : null,
      "label" : "Button Background Color",
      "required" : false,
      "locked" : false,
      "type" : "color",
      "default" : {
        "color" : null,
        "opacity" : null
      }
    }, {
      "id" : "ec343b7e-e070-15c5-57cc-5f44a01eacb8",
      "name" : "button_text_color",
      "display_width" : null,
      "label" : "Button Text Color",
      "required" : false,
      "locked" : false,
      "type" : "color",
      "default" : {
        "color" : null,
        "opacity" : null
      }
    } ],
    "tab" : "CONTENT",
    "expanded" : false,
    "type" : "group",
    "default" : {
      "button_background_color" : {
        "color" : null,
        "opacity" : null
      },
      "button_text_color" : {
        "color" : null,
        "opacity" : null
      }
    }
  }, {
    "id" : "47eb6ab7-7c99-6d91-d4b9-6c189e660fd1",
    "name" : "button_hover_state",
    "display_width" : null,
    "label" : "Button Hover State",
    "required" : false,
    "locked" : false,
    "children" : [ {
      "id" : "df2f0bd5-2325-9df9-849e-e90d9d9d5870",
      "name" : "button_background_color",
      "display_width" : null,
      "label" : "Button Background Color",
      "required" : false,
      "locked" : false,
      "type" : "color",
      "default" : {
        "color" : null,
        "opacity" : null
      }
    }, {
      "id" : "970998f3-ae31-1bea-6b48-14f25fcf1c4b",
      "name" : "button_text_color",
      "display_width" : null,
      "label" : "Button Text Color",
      "required" : false,
      "locked" : false,
      "type" : "color",
      "default" : {
        "color" : null,
        "opacity" : null
      }
    } ],
    "tab" : "CONTENT",
    "expanded" : false,
    "type" : "group",
    "default" : {
      "button_background_color" : {
        "color" : null,
        "opacity" : null
      },
      "button_text_color" : {
        "color" : null,
        "opacity" : null
      }
    }
  } ],
  "tab" : "CONTENT",
  "expanded" : false,
  "type" : "group",
  "default" : {
    "button_default_state" : {
      "button_background_color" : {
        "color" : null,
        "opacity" : null
      },
      "button_text_color" : {
        "color" : null,
        "opacity" : null
      }
    },
    "button_hover_state" : {
      "button_background_color" : {
        "color" : null,
        "opacity" : null
      },
      "button_text_color" : {
        "color" : null,
        "opacity" : null
      }
    }
  }
}, {
  "id" : "b849abce-2a5c-8feb-4581-2ee1ea7717cd",
  "name" : "show_hide_button",
  "display_width" : null,
  "label" : "Show/Hide - Button",
  "required" : false,
  "locked" : false,
  "display" : "toggle",
  "type" : "boolean",
  "default" : false
} ]