[ {
  "id" : "75497864-0037-7558-6d8a-02b745fc9044",
  "name" : "style",
  "display_width" : null,
  "label" : "Style",
  "required" : false,
  "locked" : false,
  "children" : [ {
    "id" : "3286c96f-cf0a-ef27-0cd2-4f00084b384d",
    "name" : "section_show_hide_",
    "display_width" : null,
    "label" : "Section [ Show | Hide ]",
    "required" : false,
    "locked" : false,
    "display" : "checkbox",
    "type" : "boolean",
    "default" : true
  }, {
    "id" : "b689f769-5520-25b7-8b47-6a0f75b5bba6",
    "name" : "section_background",
    "display_width" : null,
    "label" : "Section Background",
    "required" : false,
    "locked" : false,
    "type" : "gradient",
    "default" : { }
  }, {
    "id" : "10a8cd34-879e-0192-9acc-1112ccb32e83",
    "name" : "desktop_spacing",
    "display_width" : null,
    "label" : "Desktop Spacing",
    "required" : false,
    "locked" : false,
    "type" : "spacing",
    "default" : {
      "padding" : {
        "top" : {
          "value" : 54,
          "units" : "px"
        },
        "bottom" : {
          "value" : 70,
          "units" : "px"
        },
        "left" : {
          "value" : null,
          "units" : null
        },
        "right" : {
          "value" : null,
          "units" : null
        }
      }
    }
  }, {
    "id" : "7f2f1ffd-2075-d57d-5982-23b86d8bd177",
    "name" : "tablet_spacing",
    "display_width" : null,
    "label" : "Tablet Spacing",
    "required" : false,
    "locked" : false,
    "type" : "spacing",
    "default" : { }
  }, {
    "id" : "adf6e404-3d20-1978-2ddb-c771c6001729",
    "name" : "mobile_spacing",
    "display_width" : null,
    "label" : "Mobile Spacing",
    "required" : false,
    "locked" : false,
    "type" : "spacing",
    "default" : { }
  }, {
    "id" : "fab2ac7c-2df9-9de9-783c-0b90f8655c1b",
    "name" : "color_settings",
    "display_width" : null,
    "label" : "Color Settings",
    "required" : false,
    "locked" : false,
    "children" : [ {
      "id" : "66bb8c87-5ede-3901-bf06-7c7fba7d8a35",
      "name" : "filters_text_color",
      "display_width" : null,
      "label" : "Filters | Bottom Block Text Color",
      "required" : false,
      "locked" : false,
      "type" : "color",
      "default" : {
        "color" : "#fff",
        "opacity" : 100
      }
    }, {
      "id" : "10b921cc-5055-13ac-854d-a42cf447157e",
      "name" : "title_color",
      "display_width" : null,
      "label" : "Title Color",
      "required" : false,
      "locked" : false,
      "type" : "color",
      "default" : {
        "color" : null,
        "opacity" : null
      }
    }, {
      "id" : "54d7774d-ef7f-21e8-eb7d-779e1d282992",
      "name" : "paragraph_text_color",
      "display_width" : null,
      "label" : "Paragraph Text Color",
      "required" : false,
      "locked" : false,
      "type" : "color",
      "default" : {
        "color" : "#000",
        "opacity" : 100
      }
    } ],
    "tab" : "STYLE",
    "expanded" : false,
    "type" : "group",
    "default" : {
      "filters_text_color" : {
        "color" : "#fff",
        "opacity" : 100
      },
      "title_color" : {
        "color" : null,
        "opacity" : null
      },
      "paragraph_text_color" : {
        "color" : "#000",
        "opacity" : 100
      }
    }
  } ],
  "tab" : "STYLE",
  "expanded" : false,
  "type" : "group",
  "default" : {
    "section_show_hide_" : true,
    "section_background" : { },
    "desktop_spacing" : {
      "padding" : {
        "top" : {
          "value" : 54,
          "units" : "px"
        },
        "bottom" : {
          "value" : 70,
          "units" : "px"
        },
        "left" : {
          "value" : null,
          "units" : null
        },
        "right" : {
          "value" : null,
          "units" : null
        }
      }
    },
    "tablet_spacing" : { },
    "mobile_spacing" : { },
    "color_settings" : {
      "filters_text_color" : {
        "color" : "#fff",
        "opacity" : 100
      },
      "title_color" : {
        "color" : null,
        "opacity" : null
      },
      "paragraph_text_color" : {
        "color" : "#000",
        "opacity" : 100
      }
    }
  }
}, {
  "id" : "fdc196d2-7f92-db0a-7e1c-9c12adc87551",
  "name" : "menu_field",
  "display_width" : null,
  "label" : "Menu",
  "required" : false,
  "locked" : false,
  "type" : "menu",
  "default" : 78332164531
}, {
  "id" : "b6c23046-8627-19aa-11dd-7424ca3ddf6b",
  "name" : "hide_filter_and_listing_show_no_available_message_",
  "display_width" : null,
  "label" : "Hide Filter And Listing [ Show No Available Message]",
  "required" : false,
  "locked" : false,
  "display" : "toggle",
  "type" : "boolean",
  "default" : true
}, {
  "id" : "f3862752-c54f-1902-b27a-955c56de5e40",
  "name" : "boolean_field",
  "display_width" : null,
  "label" : "Show | Hide - Content Left Sidebar",
  "required" : false,
  "locked" : false,
  "display" : "toggle",
  "type" : "boolean",
  "default" : false
}, {
  "id" : "2a63a93c-c78a-6efd-27b0-b5cbc4b853ad",
  "name" : "title",
  "display_width" : null,
  "label" : "Title",
  "required" : false,
  "locked" : false,
  "validation_regex" : "",
  "visibility" : {
    "controlling_field" : "f3862752-c54f-1902-b27a-955c56de5e40",
    "controlling_field_path" : null,
    "controlling_value_regex" : "true",
    "property" : null,
    "operator" : "EQUAL",
    "access" : null
  },
  "allow_new_line" : false,
  "show_emoji_picker" : false,
  "type" : "text",
  "default" : "SELIX Parts"
}, {
  "id" : "5d69637a-521b-e651-0034-fcd3f6a400c0",
  "name" : "description",
  "display_width" : null,
  "label" : "Description",
  "required" : false,
  "locked" : false,
  "validation_regex" : "",
  "visibility" : {
    "controlling_field" : "f3862752-c54f-1902-b27a-955c56de5e40",
    "controlling_field_path" : null,
    "controlling_value_regex" : "true",
    "property" : null,
    "operator" : "EQUAL",
    "access" : null
  },
  "allow_new_line" : false,
  "show_emoji_picker" : false,
  "type" : "text",
  "default" : "Long established as Canada's largest supplier of aftermarket construction equipment parts, ESS sources quality parts worldwide for ALL makes and ALL models. With branches in Toronto, Vancouver, Montreal, Edmonton, London, Sudbury, Ottawa, Sparwood, and Quebec City, ESS can supply to any location across Canada. ESS carries world-renowned BERCO and ITM undercarriage products including track chains, track shoes, rubber tracks, rollers, idlers, and other parts for routine service of crawler-mounted equipment. ESS is also the largest volume supplier of ESCO ground engaging tools, such as bucket teeth/adapters & crushing jaws. From engine to hydraulic components and everything in between we will get you the highest quality products at a competitive price."
}, {
  "id" : "37d3c04d-ff21-657f-1ba0-753d143b96c1",
  "name" : "similar_product_title",
  "display_width" : null,
  "label" : "Similar Product Title",
  "required" : false,
  "locked" : false,
  "validation_regex" : "",
  "visibility" : {
    "controlling_field" : "b6c23046-8627-19aa-11dd-7424ca3ddf6b",
    "controlling_field_path" : null,
    "controlling_value_regex" : "true",
    "property" : null,
    "operator" : "MATCHES_REGEX",
    "access" : null
  },
  "allow_new_line" : false,
  "show_emoji_picker" : false,
  "type" : "text",
  "default" : "SIMILAR PRODUCTS"
}, {
  "id" : "945b4a1e-ffda-8778-e1c1-1563781160c7",
  "name" : "no_result_text",
  "display_width" : null,
  "label" : "No Result Text",
  "required" : false,
  "locked" : false,
  "validation_regex" : "",
  "allow_new_line" : false,
  "show_emoji_picker" : false,
  "type" : "text",
  "default" : "No available inventory matches your search."
}, {
  "id" : "79b799d4-65a4-488d-3981-30f604c4bfeb",
  "name" : "select_hubdb_table",
  "display_width" : null,
  "label" : "Select HubDB table",
  "required" : false,
  "locked" : false,
  "visibility" : {
    "controlling_field" : "b6c23046-8627-19aa-11dd-7424ca3ddf6b",
    "controlling_field_path" : null,
    "controlling_value_regex" : "true",
    "property" : null,
    "operator" : "MATCHES_REGEX",
    "access" : null
  },
  "type" : "hubdbtable",
  "default" : 5438319
}, {
  "id" : "881c9370-6825-716e-221a-9a41ec23ddc7",
  "name" : "show_background_contain",
  "display_width" : null,
  "label" : "Show Background Contain",
  "required" : false,
  "locked" : false,
  "display" : "toggle",
  "type" : "boolean",
  "default" : false
} ]