[ {
  "id" : "75497864-0037-7558-6d8a-02b745fc9044",
  "name" : "style",
  "display_width" : null,
  "label" : "Style",
  "required" : false,
  "locked" : false,
  "children" : [ {
    "id" : "3286c96f-cf0a-ef27-0cd2-4f00084b384d",
    "name" : "section_show_hide_",
    "display_width" : null,
    "label" : "Section [ Show | Hide ]",
    "required" : false,
    "locked" : false,
    "display" : "checkbox",
    "type" : "boolean",
    "default" : true
  }, {
    "id" : "1198af1d-4965-c387-741a-97ca08eb53ee",
    "name" : "section_background",
    "display_width" : null,
    "label" : "Section Background",
    "required" : false,
    "locked" : false,
    "children" : [ {
      "id" : "8f42547b-e890-0fa8-ac86-c2dc64967121",
      "name" : "overlay_show_hide_",
      "display_width" : null,
      "label" : "Overlay [ Show | Hide ]",
      "required" : false,
      "locked" : false,
      "display" : "checkbox",
      "type" : "boolean",
      "default" : false
    }, {
      "id" : "1f4b3ca7-37a9-0fa0-64b1-d7ff065ca6f4",
      "name" : "background_image",
      "display_width" : null,
      "label" : "Background Image",
      "required" : false,
      "locked" : false,
      "responsive" : true,
      "resizable" : true,
      "show_loading" : false,
      "type" : "image",
      "default" : {
        "size_type" : "auto",
        "src" : "https://4079460.fs1.hubspotusercontent-na1.net/hubfs/4079460/Assets%20ESS%20Theme%20-%202022/Images/Component%20149%20%E2%80%93%201-min.png",
        "alt" : "Component 149 – 1-min",
        "loading" : "lazy",
        "width" : 1440,
        "height" : 676,
        "max_width" : 1440,
        "max_height" : 676
      }
    } ],
    "tab" : "STYLE",
    "expanded" : false,
    "type" : "group",
    "default" : {
      "overlay_show_hide_" : false,
      "background_image" : {
        "size_type" : "auto",
        "src" : "https://4079460.fs1.hubspotusercontent-na1.net/hubfs/4079460/Assets%20ESS%20Theme%20-%202022/Images/Component%20149%20%E2%80%93%201-min.png",
        "alt" : "Component 149 – 1-min",
        "loading" : "lazy",
        "width" : 1440,
        "height" : 676,
        "max_width" : 1440,
        "max_height" : 676
      }
    }
  }, {
    "id" : "10a8cd34-879e-0192-9acc-1112ccb32e83",
    "name" : "desktop_spacing",
    "display_width" : null,
    "label" : "Desktop Spacing",
    "required" : false,
    "locked" : false,
    "type" : "spacing",
    "default" : {
      "padding" : {
        "top" : {
          "value" : 150,
          "units" : "px"
        },
        "bottom" : {
          "value" : 150,
          "units" : "px"
        },
        "left" : {
          "value" : null,
          "units" : null
        },
        "right" : {
          "value" : null,
          "units" : null
        }
      }
    }
  }, {
    "id" : "7f2f1ffd-2075-d57d-5982-23b86d8bd177",
    "name" : "tablet_spacing",
    "display_width" : null,
    "label" : "Tablet Spacing",
    "required" : false,
    "locked" : false,
    "type" : "spacing",
    "default" : {
      "padding" : {
        "top" : {
          "value" : 100,
          "units" : "px"
        },
        "bottom" : {
          "value" : 100,
          "units" : "px"
        },
        "left" : {
          "value" : null,
          "units" : null
        },
        "right" : {
          "value" : null,
          "units" : null
        }
      }
    }
  }, {
    "id" : "adf6e404-3d20-1978-2ddb-c771c6001729",
    "name" : "mobile_spacing",
    "display_width" : null,
    "label" : "Mobile Spacing",
    "required" : false,
    "locked" : false,
    "type" : "spacing",
    "default" : {
      "padding" : {
        "top" : {
          "value" : 80,
          "units" : "px"
        },
        "bottom" : {
          "value" : 80,
          "units" : "px"
        },
        "left" : {
          "value" : null,
          "units" : null
        },
        "right" : {
          "value" : null,
          "units" : null
        }
      }
    }
  }, {
    "id" : "fab2ac7c-2df9-9de9-783c-0b90f8655c1b",
    "name" : "color_settings",
    "display_width" : null,
    "label" : "Color Settings",
    "required" : false,
    "locked" : false,
    "children" : [ {
      "id" : "10b921cc-5055-13ac-854d-a42cf447157e",
      "name" : "title_color",
      "display_width" : null,
      "label" : "Title Color",
      "required" : false,
      "locked" : false,
      "type" : "color",
      "default" : {
        "color" : "#fff",
        "opacity" : 100
      }
    }, {
      "id" : "54d7774d-ef7f-21e8-eb7d-779e1d282992",
      "name" : "paragraph_text_color",
      "display_width" : null,
      "label" : "Paragraph Text Color",
      "required" : false,
      "locked" : false,
      "type" : "color",
      "default" : {
        "color" : "#fff",
        "opacity" : 100
      }
    }, {
      "id" : "9906dd9e-1a07-cfc3-463c-d74867f09054",
      "name" : "header_background_color_popup_form_",
      "display_width" : null,
      "label" : "Header Background Color [ Popup Form ]",
      "required" : false,
      "locked" : false,
      "type" : "color",
      "default" : {
        "color" : "#140A9A",
        "opacity" : 100
      }
    }, {
      "id" : "afd49313-2474-1371-60ee-4365c0ae0ee4",
      "name" : "title_color_popup_form_",
      "display_width" : null,
      "label" : "Title Color [ Popup Form ]",
      "required" : false,
      "locked" : false,
      "type" : "color",
      "default" : {
        "color" : "#fff",
        "opacity" : 100
      }
    } ],
    "tab" : "STYLE",
    "expanded" : false,
    "type" : "group",
    "default" : {
      "title_color" : {
        "color" : "#fff",
        "opacity" : 100
      },
      "paragraph_text_color" : {
        "color" : "#fff",
        "opacity" : 100
      },
      "header_background_color_popup_form_" : {
        "color" : "#140A9A",
        "opacity" : 100
      },
      "title_color_popup_form_" : {
        "color" : "#fff",
        "opacity" : 100
      }
    }
  } ],
  "tab" : "STYLE",
  "expanded" : false,
  "type" : "group",
  "default" : {
    "section_show_hide_" : true,
    "section_background" : {
      "overlay_show_hide_" : false,
      "background_image" : {
        "size_type" : "auto",
        "src" : "https://4079460.fs1.hubspotusercontent-na1.net/hubfs/4079460/Assets%20ESS%20Theme%20-%202022/Images/Component%20149%20%E2%80%93%201-min.png",
        "alt" : "Component 149 – 1-min",
        "loading" : "lazy",
        "width" : 1440,
        "height" : 676,
        "max_width" : 1440,
        "max_height" : 676
      }
    },
    "desktop_spacing" : {
      "padding" : {
        "top" : {
          "value" : 150,
          "units" : "px"
        },
        "bottom" : {
          "value" : 150,
          "units" : "px"
        },
        "left" : {
          "value" : null,
          "units" : null
        },
        "right" : {
          "value" : null,
          "units" : null
        }
      }
    },
    "tablet_spacing" : {
      "padding" : {
        "top" : {
          "value" : 100,
          "units" : "px"
        },
        "bottom" : {
          "value" : 100,
          "units" : "px"
        },
        "left" : {
          "value" : null,
          "units" : null
        },
        "right" : {
          "value" : null,
          "units" : null
        }
      }
    },
    "mobile_spacing" : {
      "padding" : {
        "top" : {
          "value" : 80,
          "units" : "px"
        },
        "bottom" : {
          "value" : 80,
          "units" : "px"
        },
        "left" : {
          "value" : null,
          "units" : null
        },
        "right" : {
          "value" : null,
          "units" : null
        }
      }
    },
    "color_settings" : {
      "title_color" : {
        "color" : "#fff",
        "opacity" : 100
      },
      "paragraph_text_color" : {
        "color" : "#fff",
        "opacity" : 100
      },
      "header_background_color_popup_form_" : {
        "color" : "#140A9A",
        "opacity" : 100
      },
      "title_color_popup_form_" : {
        "color" : "#fff",
        "opacity" : 100
      }
    }
  }
}, {
  "id" : "ff35bdcf-08e1-52e1-824a-739500d80401",
  "name" : "title",
  "display_width" : null,
  "label" : "Title",
  "required" : false,
  "locked" : false,
  "validation_regex" : "",
  "allow_new_line" : false,
  "show_emoji_picker" : false,
  "type" : "text",
  "default" : "Blog"
}, {
  "id" : "ab202291-2c1b-b1c8-2b61-c6d41c245a33",
  "name" : "content",
  "display_width" : null,
  "label" : "Content",
  "required" : false,
  "locked" : false,
  "type" : "richtext",
  "default" : "<p>Equipment Sales &amp; Service Limited is your reliable equipment provider for construction, demolition, forestry and material handling equipment, parts, and service in Canada. Our products are backed by excellent customer service, after-sales service support, operator training, and easy access to OEM and aftermarket parts.</p>"
}, {
  "id" : "c2b2a760-0d6e-30c0-d95e-68ce5fdd4b55",
  "name" : "select_button_type",
  "display_width" : null,
  "label" : "Select Button Type",
  "required" : false,
  "locked" : false,
  "display" : "select",
  "choices" : [ [ "btn_form", "Button Popup Form" ], [ "btn_link", "Button Link" ] ],
  "multiple" : false,
  "reordering_enabled" : true,
  "preset" : null,
  "type" : "choice",
  "default" : ""
}, {
  "id" : "f1d793a3-559e-2a44-216c-4deae1a2e00a",
  "name" : "button_text",
  "display_width" : null,
  "label" : "Button Text",
  "required" : false,
  "locked" : false,
  "validation_regex" : "",
  "visibility" : {
    "controlling_field" : "c2b2a760-0d6e-30c0-d95e-68ce5fdd4b55",
    "controlling_field_path" : null,
    "controlling_value_regex" : "btn_link",
    "property" : null,
    "operator" : "MATCHES_REGEX",
    "access" : null
  },
  "allow_new_line" : false,
  "show_emoji_picker" : false,
  "type" : "text",
  "default" : "GET A QOUTE"
}, {
  "id" : "f683ce8a-5f94-4e31-c760-09eafc41d8d6",
  "name" : "button_link",
  "display_width" : null,
  "label" : "Button Link",
  "required" : false,
  "locked" : false,
  "visibility" : {
    "controlling_field" : "c2b2a760-0d6e-30c0-d95e-68ce5fdd4b55",
    "controlling_field_path" : null,
    "controlling_value_regex" : "btn_link",
    "property" : null,
    "operator" : "MATCHES_REGEX",
    "access" : null
  },
  "supported_types" : [ "EXTERNAL", "CONTENT", "FILE", "EMAIL_ADDRESS", "BLOG" ],
  "show_advanced_rel_options" : false,
  "type" : "link",
  "default" : {
    "url" : {
      "content_id" : null,
      "type" : "EXTERNAL",
      "href" : ""
    },
    "open_in_new_tab" : false,
    "no_follow" : false
  }
}, {
  "id" : "db805b82-a429-1284-2e49-d3eff0ae36fc",
  "name" : "pop_form_title",
  "display_width" : null,
  "label" : "Form Title",
  "required" : false,
  "locked" : false,
  "validation_regex" : "",
  "visibility" : {
    "controlling_field" : "c2b2a760-0d6e-30c0-d95e-68ce5fdd4b55",
    "controlling_field_path" : null,
    "controlling_value_regex" : "btn_form",
    "property" : null,
    "operator" : "MATCHES_REGEX",
    "access" : null
  },
  "allow_new_line" : false,
  "show_emoji_picker" : false,
  "type" : "text",
  "default" : "GET A QUOTE"
}, {
  "id" : "402c2bc8-b195-2316-eba6-d00ad4e023a3",
  "name" : "form_field",
  "display_width" : null,
  "label" : "Form",
  "required" : false,
  "locked" : false,
  "visibility" : {
    "controlling_field" : "c2b2a760-0d6e-30c0-d95e-68ce5fdd4b55",
    "controlling_field_path" : null,
    "controlling_value_regex" : "btn_form",
    "property" : null,
    "operator" : "MATCHES_REGEX",
    "access" : null
  },
  "type" : "form",
  "default" : {
    "form_id" : "055b1f95-c2b7-4275-98fa-42cf5e1951f4",
    "response_type" : "inline",
    "message" : "Thanks for submitting the form.",
    "gotowebinar_webinar_key" : null,
    "form_type" : "HUBSPOT"
  }
}, {
  "id" : "79fda75c-3012-0219-fe82-656d8d1c3e39",
  "name" : "button_color_settings",
  "display_width" : null,
  "label" : "Button Color Settings",
  "required" : false,
  "locked" : false,
  "children" : [ {
    "id" : "8e25efc6-c4fc-b303-1abb-dc767e0cbd15",
    "name" : "button_default_state",
    "display_width" : null,
    "label" : "Button Default State",
    "required" : false,
    "locked" : false,
    "children" : [ {
      "id" : "620be58e-9e90-7b27-072e-0139857117a7",
      "name" : "button_background_color",
      "display_width" : null,
      "label" : "Button Background Color",
      "required" : false,
      "locked" : false,
      "type" : "color",
      "default" : {
        "color" : null,
        "opacity" : null
      }
    }, {
      "id" : "ec343b7e-e070-15c5-57cc-5f44a01eacb8",
      "name" : "button_text_color",
      "display_width" : null,
      "label" : "Button Text Color",
      "required" : false,
      "locked" : false,
      "type" : "color",
      "default" : {
        "color" : null,
        "opacity" : null
      }
    } ],
    "tab" : "CONTENT",
    "expanded" : false,
    "type" : "group",
    "default" : {
      "button_background_color" : {
        "color" : null,
        "opacity" : null
      },
      "button_text_color" : {
        "color" : null,
        "opacity" : null
      }
    }
  }, {
    "id" : "47eb6ab7-7c99-6d91-d4b9-6c189e660fd1",
    "name" : "button_hover_state",
    "display_width" : null,
    "label" : "Button Hover State",
    "required" : false,
    "locked" : false,
    "children" : [ {
      "id" : "df2f0bd5-2325-9df9-849e-e90d9d9d5870",
      "name" : "button_background_color",
      "display_width" : null,
      "label" : "Button Background Color",
      "required" : false,
      "locked" : false,
      "type" : "color",
      "default" : {
        "color" : null,
        "opacity" : null
      }
    }, {
      "id" : "970998f3-ae31-1bea-6b48-14f25fcf1c4b",
      "name" : "button_text_color",
      "display_width" : null,
      "label" : "Button Text Color",
      "required" : false,
      "locked" : false,
      "type" : "color",
      "default" : {
        "color" : null,
        "opacity" : null
      }
    } ],
    "tab" : "CONTENT",
    "expanded" : false,
    "type" : "group",
    "default" : {
      "button_background_color" : {
        "color" : null,
        "opacity" : null
      },
      "button_text_color" : {
        "color" : null,
        "opacity" : null
      }
    }
  } ],
  "tab" : "CONTENT",
  "expanded" : false,
  "type" : "group",
  "default" : {
    "button_default_state" : {
      "button_background_color" : {
        "color" : null,
        "opacity" : null
      },
      "button_text_color" : {
        "color" : null,
        "opacity" : null
      }
    },
    "button_hover_state" : {
      "button_background_color" : {
        "color" : null,
        "opacity" : null
      },
      "button_text_color" : {
        "color" : null,
        "opacity" : null
      }
    }
  }
} ]