[ {
  "id" : "9fb4c08f-7f4d-8330-8b60-9d92cb6621c4",
  "name" : "style",
  "display_width" : null,
  "label" : "Style",
  "required" : false,
  "locked" : false,
  "children" : [ {
    "id" : "ace56986-e770-15d9-ef0e-1581fe44ba23",
    "name" : "background_options",
    "display_width" : null,
    "label" : "Background Options",
    "required" : false,
    "locked" : false,
    "display" : "select",
    "choices" : [ [ "background_color", "Background Color" ], [ "background_image", "Background Image" ], [ "background_gradient", "Background Gradient" ] ],
    "multiple" : false,
    "reordering_enabled" : true,
    "preset" : null,
    "type" : "choice"
  }, {
    "id" : "8636dc85-341f-57d2-4e55-414ba0212369",
    "name" : "background_color",
    "display_width" : null,
    "label" : "Background Color",
    "required" : false,
    "locked" : false,
    "visibility" : {
      "controlling_field" : "ace56986-e770-15d9-ef0e-1581fe44ba23",
      "controlling_field_path" : null,
      "controlling_value_regex" : "background_color",
      "property" : null,
      "operator" : "MATCHES_REGEX",
      "access" : null
    },
    "type" : "color",
    "default" : {
      "color" : "#fff",
      "opacity" : 0
    }
  }, {
    "id" : "71773d80-15e1-c1c7-bdda-60b75d66f4b3",
    "name" : "background_image",
    "display_width" : null,
    "label" : "Background image",
    "required" : false,
    "locked" : false,
    "visibility" : {
      "controlling_field" : "ace56986-e770-15d9-ef0e-1581fe44ba23",
      "controlling_field_path" : null,
      "controlling_value_regex" : "background_image",
      "property" : null,
      "operator" : "MATCHES_REGEX",
      "access" : null
    },
    "type" : "backgroundimage",
    "default" : {
      "src" : "",
      "background_position" : "MIDDLE_CENTER",
      "background_size" : "cover"
    }
  }, {
    "id" : "7af78e5a-eff7-0d09-d99c-55346f14a7bc",
    "name" : "background_gradient",
    "display_width" : null,
    "label" : "Background Gradient",
    "required" : false,
    "locked" : false,
    "visibility" : {
      "controlling_field" : "ace56986-e770-15d9-ef0e-1581fe44ba23",
      "controlling_field_path" : null,
      "controlling_value_regex" : "background_gradient",
      "property" : null,
      "operator" : "MATCHES_REGEX",
      "access" : null
    },
    "type" : "gradient",
    "default" : { }
  }, {
    "id" : "544eae94-2181-d633-54f3-f11a22c3b682",
    "name" : "spacing_desktop_",
    "display_width" : null,
    "label" : "Spacing [ Desktop ]",
    "required" : false,
    "locked" : false,
    "type" : "spacing",
    "default" : { }
  }, {
    "id" : "350b029b-e3d4-efb2-27b8-6a78c829be51",
    "name" : "spacing_tablet_",
    "display_width" : null,
    "label" : "Spacing [ Tablet ]",
    "required" : false,
    "locked" : false,
    "type" : "spacing",
    "default" : { }
  }, {
    "id" : "daef047c-1304-2d96-ada3-42116bd0368a",
    "name" : "spacing_mobile_",
    "display_width" : null,
    "label" : "Spacing [ Mobile ]",
    "required" : false,
    "locked" : false,
    "type" : "spacing",
    "default" : { }
  }, {
    "id" : "82ecc154-891c-225a-dbc6-92fc69781dba",
    "name" : "add_overlay_",
    "display_width" : null,
    "label" : "Add Overlay?",
    "required" : false,
    "locked" : false,
    "display" : "checkbox",
    "type" : "boolean",
    "default" : false
  }, {
    "id" : "2402b680-6747-8301-0724-1a01eca93224",
    "name" : "overlay_color",
    "display_width" : null,
    "label" : "Overlay Color",
    "required" : false,
    "locked" : false,
    "visibility" : {
      "controlling_field" : "82ecc154-891c-225a-dbc6-92fc69781dba",
      "controlling_field_path" : null,
      "controlling_value_regex" : "true",
      "property" : null,
      "operator" : "EQUAL",
      "access" : null
    },
    "type" : "color",
    "default" : {
      "color" : "#fff",
      "opacity" : 0
    }
  } ],
  "tab" : "STYLE",
  "expanded" : false,
  "type" : "group",
  "default" : {
    "background_color" : {
      "color" : "#fff",
      "opacity" : 0
    },
    "background_image" : {
      "src" : "",
      "background_position" : "MIDDLE_CENTER",
      "background_size" : "cover"
    },
    "background_gradient" : { },
    "spacing_desktop_" : { },
    "spacing_tablet_" : { },
    "spacing_mobile_" : { },
    "add_overlay_" : false,
    "overlay_color" : {
      "color" : "#fff",
      "opacity" : 0
    }
  }
}, {
  "id" : "9a68644c-73a1-f1d3-46d2-241036383078",
  "name" : "number_of_post",
  "display_width" : null,
  "label" : "Number Of Post",
  "required" : false,
  "locked" : false,
  "display" : "text",
  "step" : 1,
  "type" : "number",
  "default" : 2
}, {
  "id" : "7974ac87-2c17-f298-67d1-a1b7248ae5a7",
  "name" : "accordion_group",
  "display_width" : null,
  "label" : "Accordion Group",
  "required" : false,
  "locked" : false,
  "occurrence" : {
    "min" : null,
    "max" : null,
    "sorting_label_field" : null,
    "default" : null
  },
  "children" : [ {
    "id" : "e6b3b4d9-6039-1743-6880-2bfa1d370b7d",
    "name" : "accordion_title",
    "display_width" : null,
    "label" : "Accordion Title",
    "required" : false,
    "locked" : false,
    "validation_regex" : "",
    "allow_new_line" : false,
    "show_emoji_picker" : false,
    "type" : "text",
    "default" : "Preparing for an exit: Profit and Loss"
  }, {
    "id" : "9b810b7c-5c6d-e76b-511a-f49d576a2bdb",
    "name" : "text_color",
    "display_width" : null,
    "label" : "Text Color",
    "required" : false,
    "locked" : false,
    "type" : "color",
    "default" : {
      "color" : "#7a8a9e",
      "opacity" : 100
    }
  }, {
    "id" : "d8b7ae2d-aca0-ba6c-17b5-46353f722b08",
    "name" : "accordion_cards",
    "display_width" : null,
    "label" : "Accordion Cards",
    "required" : false,
    "locked" : false,
    "occurrence" : {
      "min" : 0,
      "max" : 20,
      "sorting_label_field" : null,
      "default" : 1
    },
    "children" : [ {
      "id" : "8bc7b6d1-b440-0efa-3f31-dbbd996fbf0f",
      "name" : "city_name",
      "display_width" : null,
      "label" : "City Name",
      "required" : false,
      "locked" : false,
      "validation_regex" : "",
      "allow_new_line" : false,
      "show_emoji_picker" : false,
      "type" : "text",
      "default" : "TORONTO"
    }, {
      "id" : "6d733048-d211-6692-2423-2a534cea931e",
      "name" : "address",
      "display_width" : null,
      "label" : "Address",
      "required" : false,
      "locked" : false,
      "validation_regex" : "",
      "allow_new_line" : false,
      "show_emoji_picker" : false,
      "type" : "text",
      "default" : " 1030-1032 Martin Grove Rd \t\t\t\t\t\t\t\t\t\t\t<br>\t\t\t\t\t\t\t\t\t\t\t Toronto, ON M9W 4W3 "
    }, {
      "id" : "7cecd01c-4f25-6602-15a1-09ec6cd4c3e9",
      "name" : "address_link",
      "display_width" : null,
      "label" : "Address Link",
      "required" : false,
      "locked" : false,
      "supported_types" : [ "EXTERNAL", "CONTENT", "FILE", "EMAIL_ADDRESS", "BLOG", "CALL_TO_ACTION", "PHONE_NUMBER", "WHATSAPP_NUMBER", "PAYMENT" ],
      "show_advanced_rel_options" : false,
      "type" : "link",
      "default" : {
        "url" : {
          "content_id" : null,
          "href" : "https://g.page/essltdcanada?share",
          "type" : "EXTERNAL"
        },
        "open_in_new_tab" : false,
        "no_follow" : false
      }
    }, {
      "id" : "f40a9ebb-5fb3-fdd8-fd54-d23bec213265",
      "name" : "hours",
      "display_width" : null,
      "label" : "Hours",
      "required" : false,
      "locked" : false,
      "validation_regex" : "",
      "allow_new_line" : false,
      "show_emoji_picker" : false,
      "type" : "text",
      "default" : "Hours: M-F 8:00am - 4:30pm"
    }, {
      "id" : "30c8a036-2726-a1f8-03cd-e63523b33677",
      "name" : "contact_details",
      "display_width" : null,
      "label" : "Contact Details",
      "required" : false,
      "locked" : false,
      "type" : "richtext",
      "default" : "<p>Toll-Free:<a href=\"tel:+18002680679\" class=\"inline-link \" data-original-title=\"\" title=\"\" id=\"\">(800) 268-0679 </a><br>Phone:<a href=\"tel:+4162498141\" class=\"inline-link sheditorinsertLink\" data-original-title=\"\" title=\"\" id=\"\"> (416) 249-8141 </a><br>Fax Parts: (416) 240-1731 <br>Fax Admin: (416) 249-8912</p>"
    } ],
    "tab" : "CONTENT",
    "expanded" : false,
    "type" : "group",
    "default" : [ {
      "city_name" : "TORONTO",
      "address" : " 1030-1032 Martin Grove Rd \t\t\t\t\t\t\t\t\t\t\t<br>\t\t\t\t\t\t\t\t\t\t\t Toronto, ON M9W 4W3 ",
      "address_link" : {
        "url" : {
          "content_id" : null,
          "href" : "https://g.page/essltdcanada?share",
          "type" : "EXTERNAL"
        },
        "open_in_new_tab" : false,
        "no_follow" : false
      },
      "hours" : "Hours: M-F 8:00am - 4:30pm",
      "contact_details" : "<p>Toll-Free:<a href=\"tel:+18002680679\" class=\"inline-link \" data-original-title=\"\" title=\"\" id=\"\">(800) 268-0679 </a><br>Phone:<a href=\"tel:+4162498141\" class=\"inline-link sheditorinsertLink\" data-original-title=\"\" title=\"\" id=\"\"> (416) 249-8141 </a><br>Fax Parts: (416) 240-1731 <br>Fax Admin: (416) 249-8912</p>"
    } ]
  } ],
  "tab" : "CONTENT",
  "expanded" : false,
  "type" : "group",
  "default" : {
    "accordion_title" : "Preparing for an exit: Profit and Loss",
    "text_color" : {
      "color" : "#7a8a9e",
      "opacity" : 100
    },
    "accordion_cards" : [ {
      "city_name" : "TORONTO",
      "address" : " 1030-1032 Martin Grove Rd \t\t\t\t\t\t\t\t\t\t\t<br>\t\t\t\t\t\t\t\t\t\t\t Toronto, ON M9W 4W3 ",
      "address_link" : {
        "url" : {
          "content_id" : null,
          "href" : "https://g.page/essltdcanada?share",
          "type" : "EXTERNAL"
        },
        "open_in_new_tab" : false,
        "no_follow" : false
      },
      "hours" : "Hours: M-F 8:00am - 4:30pm",
      "contact_details" : "<p>Toll-Free:<a href=\"tel:+18002680679\" class=\"inline-link \" data-original-title=\"\" title=\"\" id=\"\">(800) 268-0679 </a><br>Phone:<a href=\"tel:+4162498141\" class=\"inline-link sheditorinsertLink\" data-original-title=\"\" title=\"\" id=\"\"> (416) 249-8141 </a><br>Fax Parts: (416) 240-1731 <br>Fax Admin: (416) 249-8912</p>"
    } ]
  }
} ]