[ {
  "id" : "2d3ca8f0-d02c-2664-3189-ea595dfacb9a",
  "name" : "iframe",
  "display_width" : null,
  "label" : "iframe",
  "required" : false,
  "locked" : false,
  "validation_regex" : "",
  "allow_new_line" : false,
  "show_emoji_picker" : false,
  "type" : "text",
  "default" : "<iframe src=\"https://na4.docusign.net/Member/PowerFormSigning.aspx?PowerFormId=c9a967bd-de37-4067-86a0-5c20118db481&env=na4&acct=c976567f-b642-4b23-b8d1-e41f9376a2ae&v=2\"> </iframe>"
} ]