{
  "author.help_text" : {
    "message" : "",
    "description" : "",
    "placeholders" : null
  },
  "author.inline_help_text" : {
    "message" : "",
    "description" : "",
    "placeholders" : null
  },
  "author.label" : {
    "message" : "",
    "description" : "",
    "placeholders" : null
  },
  "author.placeholder" : {
    "message" : "",
    "description" : "",
    "placeholders" : null
  },
  "blog_author_listing.help_text" : {
    "message" : "These fields allow you to change the labels on your author listing pages.",
    "description" : "",
    "placeholders" : null
  },
  "blog_author_listing.inline_help_text" : {
    "message" : "",
    "description" : "",
    "placeholders" : null
  },
  "blog_author_listing.label" : {
    "message" : "Blog author listing",
    "description" : "",
    "placeholders" : null
  },
  "blog_author_listing.placeholder" : {
    "message" : "",
    "description" : "",
    "placeholders" : null
  },
  "blog_author_listing.subheading.default" : {
    "message" : "Posts by",
    "description" : "",
    "placeholders" : null
  },
  "blog_author_listing.subheading.help_text" : {
    "message" : "",
    "description" : "",
    "placeholders" : null
  },
  "blog_author_listing.subheading.inline_help_text" : {
    "message" : "",
    "description" : "",
    "placeholders" : null
  },
  "blog_author_listing.subheading.label" : {
    "message" : "Subheading",
    "description" : "",
    "placeholders" : null
  },
  "blog_author_listing.subheading.placeholder" : {
    "message" : "",
    "description" : "",
    "placeholders" : null
  },
  "blog_author_listing.subheading.validation_regex" : {
    "message" : "",
    "description" : "",
    "placeholders" : null
  },
  "blog_posts.default" : {
    "message" : "",
    "description" : null,
    "placeholders" : null
  },
  "blog_posts.help_text" : {
    "message" : "",
    "description" : null,
    "placeholders" : null
  },
  "blog_posts.inline_help_text" : {
    "message" : "",
    "description" : null,
    "placeholders" : null
  },
  "blog_posts.label" : {
    "message" : "",
    "description" : null,
    "placeholders" : null
  },
  "blog_posts.placeholder" : {
    "message" : "",
    "description" : null,
    "placeholders" : null
  },
  "blog_tag_listing.help_text" : {
    "message" : "These fields allow you to change the labels on your tag listing pages.",
    "description" : "",
    "placeholders" : null
  },
  "blog_tag_listing.inline_help_text" : {
    "message" : "",
    "description" : "",
    "placeholders" : null
  },
  "blog_tag_listing.label" : {
    "message" : "Blog tag listing",
    "description" : "",
    "placeholders" : null
  },
  "blog_tag_listing.placeholder" : {
    "message" : "",
    "description" : "",
    "placeholders" : null
  },
  "blog_tag_listing.subheading.default" : {
    "message" : "Posts about",
    "description" : "",
    "placeholders" : null
  },
  "blog_tag_listing.subheading.help_text" : {
    "message" : "",
    "description" : "",
    "placeholders" : null
  },
  "blog_tag_listing.subheading.inline_help_text" : {
    "message" : "",
    "description" : "",
    "placeholders" : null
  },
  "blog_tag_listing.subheading.label" : {
    "message" : "Subheading",
    "description" : "",
    "placeholders" : null
  },
  "blog_tag_listing.subheading.placeholder" : {
    "message" : "",
    "description" : "",
    "placeholders" : null
  },
  "blog_tag_listing.subheading.validation_regex" : {
    "message" : "",
    "description" : "",
    "placeholders" : null
  },
  "button.help_text" : {
    "message" : "",
    "description" : "",
    "placeholders" : null
  },
  "button.inline_help_text" : {
    "message" : "",
    "description" : "",
    "placeholders" : null
  },
  "button.label" : {
    "message" : "",
    "description" : "",
    "placeholders" : null
  },
  "button.placeholder" : {
    "message" : "",
    "description" : "",
    "placeholders" : null
  },
  "button_text.default" : {
    "message" : "Read More >",
    "description" : "",
    "placeholders" : null
  },
  "button_text.help_text" : {
    "message" : "",
    "description" : "",
    "placeholders" : null
  },
  "button_text.inline_help_text" : {
    "message" : "",
    "description" : "",
    "placeholders" : null
  },
  "button_text.label" : {
    "message" : "",
    "description" : "",
    "placeholders" : null
  },
  "button_text.placeholder" : {
    "message" : "",
    "description" : "",
    "placeholders" : null
  },
  "button_text.validation_regex" : {
    "message" : "",
    "description" : "",
    "placeholders" : null
  },
  "description.help_text" : {
    "message" : "",
    "description" : "",
    "placeholders" : null
  },
  "description.inline_help_text" : {
    "message" : "",
    "description" : "",
    "placeholders" : null
  },
  "description.label" : {
    "message" : "Description",
    "description" : "",
    "placeholders" : null
  },
  "description.placeholder" : {
    "message" : "",
    "description" : "",
    "placeholders" : null
  },
  "featured_image.help_text" : {
    "message" : "",
    "description" : "",
    "placeholders" : null
  },
  "featured_image.inline_help_text" : {
    "message" : "",
    "description" : "",
    "placeholders" : null
  },
  "featured_image.label" : {
    "message" : "Featured image",
    "description" : "",
    "placeholders" : null
  },
  "featured_image.placeholder" : {
    "message" : "",
    "description" : "",
    "placeholders" : null
  },
  "field_label.default" : {
    "message" : "",
    "description" : null,
    "placeholders" : null
  },
  "field_label.help_text" : {
    "message" : "",
    "description" : null,
    "placeholders" : null
  },
  "field_label.inline_help_text" : {
    "message" : "",
    "description" : null,
    "placeholders" : null
  },
  "field_label.label" : {
    "message" : "Label text",
    "description" : null,
    "placeholders" : null
  },
  "field_label.placeholder" : {
    "message" : "",
    "description" : null,
    "placeholders" : null
  },
  "field_label.validation_regex" : {
    "message" : "",
    "description" : null,
    "placeholders" : null
  },
  "first_label.default" : {
    "message" : "",
    "description" : null,
    "placeholders" : null
  },
  "first_label.help_text" : {
    "message" : "",
    "description" : null,
    "placeholders" : null
  },
  "first_label.inline_help_text" : {
    "message" : "",
    "description" : null,
    "placeholders" : null
  },
  "first_label.label" : {
    "message" : "",
    "description" : null,
    "placeholders" : null
  },
  "first_label.placeholder" : {
    "message" : "",
    "description" : null,
    "placeholders" : null
  },
  "first_label.validation_regex" : {
    "message" : "",
    "description" : null,
    "placeholders" : null
  },
  "include_search_button.default" : {
    "message" : "",
    "description" : null,
    "placeholders" : null
  },
  "include_search_button.help_text" : {
    "message" : "",
    "description" : null,
    "placeholders" : null
  },
  "include_search_button.inline_help_text" : {
    "message" : "",
    "description" : null,
    "placeholders" : null
  },
  "include_search_button.label" : {
    "message" : "",
    "description" : null,
    "placeholders" : null
  },
  "include_search_button.placeholder" : {
    "message" : "",
    "description" : null,
    "placeholders" : null
  },
  "knowledge_articles.default" : {
    "message" : "",
    "description" : null,
    "placeholders" : null
  },
  "knowledge_articles.help_text" : {
    "message" : "",
    "description" : null,
    "placeholders" : null
  },
  "knowledge_articles.inline_help_text" : {
    "message" : "",
    "description" : null,
    "placeholders" : null
  },
  "knowledge_articles.label" : {
    "message" : "",
    "description" : null,
    "placeholders" : null
  },
  "knowledge_articles.placeholder" : {
    "message" : "",
    "description" : null,
    "placeholders" : null
  },
  "landing_pages.default" : {
    "message" : "",
    "description" : null,
    "placeholders" : null
  },
  "landing_pages.help_text" : {
    "message" : "",
    "description" : null,
    "placeholders" : null
  },
  "landing_pages.inline_help_text" : {
    "message" : "",
    "description" : null,
    "placeholders" : null
  },
  "landing_pages.label" : {
    "message" : "",
    "description" : null,
    "placeholders" : null
  },
  "landing_pages.placeholder" : {
    "message" : "",
    "description" : null,
    "placeholders" : null
  },
  "last_label.default" : {
    "message" : "",
    "description" : null,
    "placeholders" : null
  },
  "last_label.help_text" : {
    "message" : "",
    "description" : null,
    "placeholders" : null
  },
  "last_label.inline_help_text" : {
    "message" : "",
    "description" : null,
    "placeholders" : null
  },
  "last_label.label" : {
    "message" : "",
    "description" : null,
    "placeholders" : null
  },
  "last_label.placeholder" : {
    "message" : "",
    "description" : null,
    "placeholders" : null
  },
  "last_label.validation_regex" : {
    "message" : "",
    "description" : null,
    "placeholders" : null
  },
  "layout_style.choices.card" : {
    "message" : "Card",
    "description" : "",
    "placeholders" : null
  },
  "layout_style.choices.list" : {
    "message" : "List",
    "description" : "",
    "placeholders" : null
  },
  "layout_style.default" : {
    "message" : "",
    "description" : null,
    "placeholders" : null
  },
  "layout_style.help_text" : {
    "message" : "",
    "description" : "",
    "placeholders" : null
  },
  "layout_style.inline_help_text" : {
    "message" : "",
    "description" : "",
    "placeholders" : null
  },
  "layout_style.label" : {
    "message" : "",
    "description" : "",
    "placeholders" : null
  },
  "layout_style.placeholder" : {
    "message" : "",
    "description" : "",
    "placeholders" : null
  },
  "name" : {
    "message" : "Blog Listings SELIX - Theme",
    "description" : "",
    "placeholders" : null
  },
  "next_label.default" : {
    "message" : "",
    "description" : null,
    "placeholders" : null
  },
  "next_label.help_text" : {
    "message" : "",
    "description" : null,
    "placeholders" : null
  },
  "next_label.inline_help_text" : {
    "message" : "",
    "description" : null,
    "placeholders" : null
  },
  "next_label.label" : {
    "message" : "",
    "description" : null,
    "placeholders" : null
  },
  "next_label.placeholder" : {
    "message" : "",
    "description" : null,
    "placeholders" : null
  },
  "next_label.validation_regex" : {
    "message" : "",
    "description" : null,
    "placeholders" : null
  },
  "placeholder.default" : {
    "message" : "Search",
    "description" : null,
    "placeholders" : null
  },
  "placeholder.help_text" : {
    "message" : "",
    "description" : null,
    "placeholders" : null
  },
  "placeholder.inline_help_text" : {
    "message" : "",
    "description" : null,
    "placeholders" : null
  },
  "placeholder.label" : {
    "message" : "",
    "description" : null,
    "placeholders" : null
  },
  "placeholder.placeholder" : {
    "message" : "",
    "description" : null,
    "placeholders" : null
  },
  "placeholder.validation_regex" : {
    "message" : "",
    "description" : null,
    "placeholders" : null
  },
  "previous_label.default" : {
    "message" : "",
    "description" : null,
    "placeholders" : null
  },
  "previous_label.help_text" : {
    "message" : "",
    "description" : null,
    "placeholders" : null
  },
  "previous_label.inline_help_text" : {
    "message" : "",
    "description" : null,
    "placeholders" : null
  },
  "previous_label.label" : {
    "message" : "",
    "description" : null,
    "placeholders" : null
  },
  "previous_label.placeholder" : {
    "message" : "",
    "description" : null,
    "placeholders" : null
  },
  "previous_label.validation_regex" : {
    "message" : "",
    "description" : null,
    "placeholders" : null
  },
  "publish_date.help_text" : {
    "message" : "",
    "description" : "",
    "placeholders" : null
  },
  "publish_date.inline_help_text" : {
    "message" : "",
    "description" : "",
    "placeholders" : null
  },
  "publish_date.label" : {
    "message" : "",
    "description" : "",
    "placeholders" : null
  },
  "publish_date.placeholder" : {
    "message" : "",
    "description" : "",
    "placeholders" : null
  },
  "select_blog.default" : {
    "message" : "",
    "description" : null,
    "placeholders" : null
  },
  "select_blog.help_text" : {
    "message" : "",
    "description" : null,
    "placeholders" : null
  },
  "select_blog.inline_help_text" : {
    "message" : "",
    "description" : null,
    "placeholders" : null
  },
  "select_blog.label" : {
    "message" : "",
    "description" : null,
    "placeholders" : null
  },
  "select_blog.placeholder" : {
    "message" : "",
    "description" : null,
    "placeholders" : null
  },
  "show_first_and_last_links.default" : {
    "message" : "",
    "description" : null,
    "placeholders" : null
  },
  "show_first_and_last_links.help_text" : {
    "message" : "",
    "description" : null,
    "placeholders" : null
  },
  "show_first_and_last_links.inline_help_text" : {
    "message" : "",
    "description" : null,
    "placeholders" : null
  },
  "show_first_and_last_links.label" : {
    "message" : "",
    "description" : null,
    "placeholders" : null
  },
  "show_first_and_last_links.placeholder" : {
    "message" : "",
    "description" : null,
    "placeholders" : null
  },
  "show_previous_and_next_links.default" : {
    "message" : "",
    "description" : null,
    "placeholders" : null
  },
  "show_previous_and_next_links.help_text" : {
    "message" : "",
    "description" : null,
    "placeholders" : null
  },
  "show_previous_and_next_links.inline_help_text" : {
    "message" : "",
    "description" : null,
    "placeholders" : null
  },
  "show_previous_and_next_links.label" : {
    "message" : "",
    "description" : null,
    "placeholders" : null
  },
  "show_previous_and_next_links.placeholder" : {
    "message" : "",
    "description" : null,
    "placeholders" : null
  },
  "styles.author.help_text" : {
    "message" : "",
    "description" : "",
    "placeholders" : null
  },
  "styles.author.image.corner.help_text" : {
    "message" : "",
    "description" : "",
    "placeholders" : null
  },
  "styles.author.image.corner.inline_help_text" : {
    "message" : "",
    "description" : "",
    "placeholders" : null
  },
  "styles.author.image.corner.label" : {
    "message" : "Corner",
    "description" : "",
    "placeholders" : null
  },
  "styles.author.image.corner.placeholder" : {
    "message" : "",
    "description" : "",
    "placeholders" : null
  },
  "styles.author.image.corner.radius.help_text" : {
    "message" : "",
    "description" : "",
    "placeholders" : null
  },
  "styles.author.image.corner.radius.inline_help_text" : {
    "message" : "",
    "description" : "",
    "placeholders" : null
  },
  "styles.author.image.corner.radius.label" : {
    "message" : "Radius",
    "description" : "",
    "placeholders" : null
  },
  "styles.author.image.corner.radius.placeholder" : {
    "message" : "",
    "description" : "",
    "placeholders" : null
  },
  "styles.author.image.help_text" : {
    "message" : "",
    "description" : "",
    "placeholders" : null
  },
  "styles.author.image.inline_help_text" : {
    "message" : "",
    "description" : "",
    "placeholders" : null
  },
  "styles.author.image.label" : {
    "message" : "Image",
    "description" : "",
    "placeholders" : null
  },
  "styles.author.image.placeholder" : {
    "message" : "",
    "description" : "",
    "placeholders" : null
  },
  "styles.author.inline_help_text" : {
    "message" : "",
    "description" : "",
    "placeholders" : null
  },
  "styles.author.label" : {
    "message" : "Author",
    "description" : "",
    "placeholders" : null
  },
  "styles.author.placeholder" : {
    "message" : "",
    "description" : "",
    "placeholders" : null
  },
  "styles.author.text.font.default.color" : {
    "message" : "#140a9a",
    "description" : null,
    "placeholders" : null
  },
  "styles.author.text.font.default.fallback" : {
    "message" : "sans-serif",
    "description" : null,
    "placeholders" : null
  },
  "styles.author.text.font.default.font" : {
    "message" : "Roboto Condensed",
    "description" : null,
    "placeholders" : null
  },
  "styles.author.text.font.default.font_set" : {
    "message" : "GOOGLE",
    "description" : null,
    "placeholders" : null
  },
  "styles.author.text.font.default.size_unit" : {
    "message" : "px",
    "description" : null,
    "placeholders" : null
  },
  "styles.author.text.font.default.variant" : {
    "message" : "regular",
    "description" : null,
    "placeholders" : null
  },
  "styles.author.text.font.help_text" : {
    "message" : "",
    "description" : "",
    "placeholders" : null
  },
  "styles.author.text.font.inline_help_text" : {
    "message" : "",
    "description" : "",
    "placeholders" : null
  },
  "styles.author.text.font.label" : {
    "message" : "",
    "description" : "",
    "placeholders" : null
  },
  "styles.author.text.font.placeholder" : {
    "message" : "",
    "description" : "",
    "placeholders" : null
  },
  "styles.author.text.help_text" : {
    "message" : "",
    "description" : "",
    "placeholders" : null
  },
  "styles.author.text.inline_help_text" : {
    "message" : "",
    "description" : "",
    "placeholders" : null
  },
  "styles.author.text.label" : {
    "message" : "Text",
    "description" : "",
    "placeholders" : null
  },
  "styles.author.text.placeholder" : {
    "message" : "",
    "description" : "",
    "placeholders" : null
  },
  "styles.button.alignment.alignment.help_text" : {
    "message" : "",
    "description" : "",
    "placeholders" : null
  },
  "styles.button.alignment.alignment.inline_help_text" : {
    "message" : "",
    "description" : "",
    "placeholders" : null
  },
  "styles.button.alignment.alignment.label" : {
    "message" : "Alignment",
    "description" : "",
    "placeholders" : null
  },
  "styles.button.alignment.alignment.placeholder" : {
    "message" : "",
    "description" : "",
    "placeholders" : null
  },
  "styles.button.alignment.help_text" : {
    "message" : "",
    "description" : "",
    "placeholders" : null
  },
  "styles.button.alignment.inline_help_text" : {
    "message" : "",
    "description" : "",
    "placeholders" : null
  },
  "styles.button.alignment.label" : {
    "message" : "Alignment",
    "description" : "",
    "placeholders" : null
  },
  "styles.button.alignment.placeholder" : {
    "message" : "",
    "description" : "",
    "placeholders" : null
  },
  "styles.button.background.color.help_text" : {
    "message" : "",
    "description" : "",
    "placeholders" : null
  },
  "styles.button.background.color.inline_help_text" : {
    "message" : "",
    "description" : "",
    "placeholders" : null
  },
  "styles.button.background.color.label" : {
    "message" : "Color",
    "description" : "",
    "placeholders" : null
  },
  "styles.button.background.color.placeholder" : {
    "message" : "",
    "description" : "",
    "placeholders" : null
  },
  "styles.button.background.help_text" : {
    "message" : "",
    "description" : "",
    "placeholders" : null
  },
  "styles.button.background.inline_help_text" : {
    "message" : "",
    "description" : "",
    "placeholders" : null
  },
  "styles.button.background.label" : {
    "message" : "Background",
    "description" : "",
    "placeholders" : null
  },
  "styles.button.background.placeholder" : {
    "message" : "",
    "description" : "",
    "placeholders" : null
  },
  "styles.button.border.border.help_text" : {
    "message" : "",
    "description" : "",
    "placeholders" : null
  },
  "styles.button.border.border.inline_help_text" : {
    "message" : "",
    "description" : "",
    "placeholders" : null
  },
  "styles.button.border.border.label" : {
    "message" : "Border",
    "description" : "",
    "placeholders" : null
  },
  "styles.button.border.border.placeholder" : {
    "message" : "",
    "description" : "",
    "placeholders" : null
  },
  "styles.button.border.help_text" : {
    "message" : "",
    "description" : "",
    "placeholders" : null
  },
  "styles.button.border.inline_help_text" : {
    "message" : "",
    "description" : "",
    "placeholders" : null
  },
  "styles.button.border.label" : {
    "message" : "Border",
    "description" : "",
    "placeholders" : null
  },
  "styles.button.border.placeholder" : {
    "message" : "",
    "description" : "",
    "placeholders" : null
  },
  "styles.button.corner.help_text" : {
    "message" : "",
    "description" : "",
    "placeholders" : null
  },
  "styles.button.corner.inline_help_text" : {
    "message" : "",
    "description" : "",
    "placeholders" : null
  },
  "styles.button.corner.label" : {
    "message" : "Corner",
    "description" : "",
    "placeholders" : null
  },
  "styles.button.corner.placeholder" : {
    "message" : "",
    "description" : "",
    "placeholders" : null
  },
  "styles.button.corner.radius.help_text" : {
    "message" : "",
    "description" : "",
    "placeholders" : null
  },
  "styles.button.corner.radius.inline_help_text" : {
    "message" : "",
    "description" : "",
    "placeholders" : null
  },
  "styles.button.corner.radius.label" : {
    "message" : "Radius",
    "description" : "",
    "placeholders" : null
  },
  "styles.button.corner.radius.placeholder" : {
    "message" : "",
    "description" : "",
    "placeholders" : null
  },
  "styles.button.default.background.color.color" : {
    "message" : "",
    "description" : null,
    "placeholders" : null
  },
  "styles.button.default.background.color.opacity" : {
    "message" : "",
    "description" : null,
    "placeholders" : null
  },
  "styles.button.default.text.font.color" : {
    "message" : "",
    "description" : null,
    "placeholders" : null
  },
  "styles.button.default.text.font.fallback" : {
    "message" : "",
    "description" : null,
    "placeholders" : null
  },
  "styles.button.default.text.font.font" : {
    "message" : "",
    "description" : null,
    "placeholders" : null
  },
  "styles.button.default.text.font.font_set" : {
    "message" : "DEFAULT",
    "description" : null,
    "placeholders" : null
  },
  "styles.button.default.text.font.size" : {
    "message" : "",
    "description" : null,
    "placeholders" : null
  },
  "styles.button.default.text.font.size_unit" : {
    "message" : "",
    "description" : null,
    "placeholders" : null
  },
  "styles.button.default.text.font.style" : {
    "message" : "",
    "description" : null,
    "placeholders" : null
  },
  "styles.button.default.text.font.styles" : {
    "message" : "",
    "description" : null,
    "placeholders" : null
  },
  "styles.button.default.text.font.variant" : {
    "message" : "",
    "description" : null,
    "placeholders" : null
  },
  "styles.button.help_text" : {
    "message" : "",
    "description" : "",
    "placeholders" : null
  },
  "styles.button.inline_help_text" : {
    "message" : "",
    "description" : "",
    "placeholders" : null
  },
  "styles.button.label" : {
    "message" : "",
    "description" : "",
    "placeholders" : null
  },
  "styles.button.placeholder" : {
    "message" : "",
    "description" : "",
    "placeholders" : null
  },
  "styles.button.spacing.help_text" : {
    "message" : "",
    "description" : "",
    "placeholders" : null
  },
  "styles.button.spacing.inline_help_text" : {
    "message" : "",
    "description" : "",
    "placeholders" : null
  },
  "styles.button.spacing.label" : {
    "message" : "Spacing",
    "description" : "",
    "placeholders" : null
  },
  "styles.button.spacing.placeholder" : {
    "message" : "",
    "description" : "",
    "placeholders" : null
  },
  "styles.button.spacing.spacing.help_text" : {
    "message" : "",
    "description" : "",
    "placeholders" : null
  },
  "styles.button.spacing.spacing.inline_help_text" : {
    "message" : "",
    "description" : "",
    "placeholders" : null
  },
  "styles.button.spacing.spacing.label" : {
    "message" : "Spacing",
    "description" : "",
    "placeholders" : null
  },
  "styles.button.spacing.spacing.placeholder" : {
    "message" : "",
    "description" : "",
    "placeholders" : null
  },
  "styles.button.text.font.help_text" : {
    "message" : "",
    "description" : "",
    "placeholders" : null
  },
  "styles.button.text.font.inline_help_text" : {
    "message" : "",
    "description" : "",
    "placeholders" : null
  },
  "styles.button.text.font.label" : {
    "message" : "Font",
    "description" : "",
    "placeholders" : null
  },
  "styles.button.text.font.placeholder" : {
    "message" : "",
    "description" : "",
    "placeholders" : null
  },
  "styles.button.text.help_text" : {
    "message" : "",
    "description" : "",
    "placeholders" : null
  },
  "styles.button.text.inline_help_text" : {
    "message" : "",
    "description" : "",
    "placeholders" : null
  },
  "styles.button.text.label" : {
    "message" : "Text",
    "description" : "",
    "placeholders" : null
  },
  "styles.button.text.placeholder" : {
    "message" : "",
    "description" : "",
    "placeholders" : null
  },
  "styles.description.help_text" : {
    "message" : "",
    "description" : "",
    "placeholders" : null
  },
  "styles.description.inline_help_text" : {
    "message" : "",
    "description" : "",
    "placeholders" : null
  },
  "styles.description.label" : {
    "message" : "Description",
    "description" : "",
    "placeholders" : null
  },
  "styles.description.placeholder" : {
    "message" : "",
    "description" : "",
    "placeholders" : null
  },
  "styles.description.text.font.default" : {
    "message" : "",
    "description" : null,
    "placeholders" : null
  },
  "styles.description.text.font.default.color" : {
    "message" : "#000000",
    "description" : null,
    "placeholders" : null
  },
  "styles.description.text.font.default.fallback" : {
    "message" : "sans-serif",
    "description" : null,
    "placeholders" : null
  },
  "styles.description.text.font.default.font" : {
    "message" : "Roboto Condensed",
    "description" : null,
    "placeholders" : null
  },
  "styles.description.text.font.default.font_set" : {
    "message" : "GOOGLE",
    "description" : null,
    "placeholders" : null
  },
  "styles.description.text.font.default.size" : {
    "message" : "",
    "description" : null,
    "placeholders" : null
  },
  "styles.description.text.font.default.size_unit" : {
    "message" : "",
    "description" : null,
    "placeholders" : null
  },
  "styles.description.text.font.default.style" : {
    "message" : "",
    "description" : null,
    "placeholders" : null
  },
  "styles.description.text.font.default.variant" : {
    "message" : "regular",
    "description" : null,
    "placeholders" : null
  },
  "styles.description.text.font.help_text" : {
    "message" : "",
    "description" : "",
    "placeholders" : null
  },
  "styles.description.text.font.inline_help_text" : {
    "message" : "",
    "description" : "",
    "placeholders" : null
  },
  "styles.description.text.font.label" : {
    "message" : "",
    "description" : "",
    "placeholders" : null
  },
  "styles.description.text.font.placeholder" : {
    "message" : "",
    "description" : "",
    "placeholders" : null
  },
  "styles.description.text.help_text" : {
    "message" : "",
    "description" : "",
    "placeholders" : null
  },
  "styles.description.text.inline_help_text" : {
    "message" : "",
    "description" : "",
    "placeholders" : null
  },
  "styles.description.text.label" : {
    "message" : "Text",
    "description" : "",
    "placeholders" : null
  },
  "styles.description.text.placeholder" : {
    "message" : "",
    "description" : "",
    "placeholders" : null
  },
  "styles.featured_image.corner.help_text" : {
    "message" : "",
    "description" : "",
    "placeholders" : null
  },
  "styles.featured_image.corner.inline_help_text" : {
    "message" : "",
    "description" : "",
    "placeholders" : null
  },
  "styles.featured_image.corner.label" : {
    "message" : "Corner",
    "description" : "",
    "placeholders" : null
  },
  "styles.featured_image.corner.placeholder" : {
    "message" : "",
    "description" : "",
    "placeholders" : null
  },
  "styles.featured_image.corner.radius.help_text" : {
    "message" : "",
    "description" : "",
    "placeholders" : null
  },
  "styles.featured_image.corner.radius.inline_help_text" : {
    "message" : "",
    "description" : "",
    "placeholders" : null
  },
  "styles.featured_image.corner.radius.label" : {
    "message" : "Radius",
    "description" : "",
    "placeholders" : null
  },
  "styles.featured_image.corner.radius.placeholder" : {
    "message" : "",
    "description" : "",
    "placeholders" : null
  },
  "styles.featured_image.help_text" : {
    "message" : "",
    "description" : "",
    "placeholders" : null
  },
  "styles.featured_image.inline_help_text" : {
    "message" : "",
    "description" : "",
    "placeholders" : null
  },
  "styles.featured_image.label" : {
    "message" : "Featured image",
    "description" : "",
    "placeholders" : null
  },
  "styles.featured_image.placeholder" : {
    "message" : "",
    "description" : "",
    "placeholders" : null
  },
  "styles.help_text" : {
    "message" : "",
    "description" : "",
    "placeholders" : null
  },
  "styles.inline_help_text" : {
    "message" : "",
    "description" : "",
    "placeholders" : null
  },
  "styles.label" : {
    "message" : "Styles",
    "description" : "",
    "placeholders" : null
  },
  "styles.placeholder" : {
    "message" : "",
    "description" : "",
    "placeholders" : null
  },
  "styles.publish_date.help_text" : {
    "message" : "",
    "description" : "",
    "placeholders" : null
  },
  "styles.publish_date.inline_help_text" : {
    "message" : "",
    "description" : "",
    "placeholders" : null
  },
  "styles.publish_date.label" : {
    "message" : "Publish date",
    "description" : "",
    "placeholders" : null
  },
  "styles.publish_date.placeholder" : {
    "message" : "",
    "description" : "",
    "placeholders" : null
  },
  "styles.publish_date.text.font.help_text" : {
    "message" : "",
    "description" : "",
    "placeholders" : null
  },
  "styles.publish_date.text.font.inline_help_text" : {
    "message" : "",
    "description" : "",
    "placeholders" : null
  },
  "styles.publish_date.text.font.label" : {
    "message" : "Font",
    "description" : "",
    "placeholders" : null
  },
  "styles.publish_date.text.font.placeholder" : {
    "message" : "",
    "description" : "",
    "placeholders" : null
  },
  "styles.publish_date.text.help_text" : {
    "message" : "",
    "description" : "",
    "placeholders" : null
  },
  "styles.publish_date.text.inline_help_text" : {
    "message" : "",
    "description" : "",
    "placeholders" : null
  },
  "styles.publish_date.text.label" : {
    "message" : "Text",
    "description" : "",
    "placeholders" : null
  },
  "styles.publish_date.text.placeholder" : {
    "message" : "",
    "description" : "",
    "placeholders" : null
  },
  "styles.tags.help_text" : {
    "message" : "",
    "description" : "",
    "placeholders" : null
  },
  "styles.tags.inline_help_text" : {
    "message" : "",
    "description" : "",
    "placeholders" : null
  },
  "styles.tags.label" : {
    "message" : "Tags",
    "description" : "",
    "placeholders" : null
  },
  "styles.tags.placeholder" : {
    "message" : "",
    "description" : "",
    "placeholders" : null
  },
  "styles.tags.text.font.help_text" : {
    "message" : "",
    "description" : "",
    "placeholders" : null
  },
  "styles.tags.text.font.inline_help_text" : {
    "message" : "",
    "description" : "",
    "placeholders" : null
  },
  "styles.tags.text.font.label" : {
    "message" : "Font",
    "description" : "",
    "placeholders" : null
  },
  "styles.tags.text.font.placeholder" : {
    "message" : "",
    "description" : "",
    "placeholders" : null
  },
  "styles.tags.text.help_text" : {
    "message" : "",
    "description" : "",
    "placeholders" : null
  },
  "styles.tags.text.inline_help_text" : {
    "message" : "",
    "description" : "",
    "placeholders" : null
  },
  "styles.tags.text.label" : {
    "message" : "Text",
    "description" : "",
    "placeholders" : null
  },
  "styles.tags.text.placeholder" : {
    "message" : "",
    "description" : "",
    "placeholders" : null
  },
  "styles.title.help_text" : {
    "message" : "",
    "description" : "",
    "placeholders" : null
  },
  "styles.title.inline_help_text" : {
    "message" : "",
    "description" : "",
    "placeholders" : null
  },
  "styles.title.label" : {
    "message" : "Title",
    "description" : "",
    "placeholders" : null
  },
  "styles.title.placeholder" : {
    "message" : "",
    "description" : "",
    "placeholders" : null
  },
  "styles.title.text.font.help_text" : {
    "message" : "",
    "description" : "",
    "placeholders" : null
  },
  "styles.title.text.font.inline_help_text" : {
    "message" : "",
    "description" : "",
    "placeholders" : null
  },
  "styles.title.text.font.label" : {
    "message" : "Font",
    "description" : "",
    "placeholders" : null
  },
  "styles.title.text.font.placeholder" : {
    "message" : "",
    "description" : "",
    "placeholders" : null
  },
  "styles.title.text.help_text" : {
    "message" : "",
    "description" : "",
    "placeholders" : null
  },
  "styles.title.text.inline_help_text" : {
    "message" : "",
    "description" : "",
    "placeholders" : null
  },
  "styles.title.text.label" : {
    "message" : "Text",
    "description" : "",
    "placeholders" : null
  },
  "styles.title.text.placeholder" : {
    "message" : "",
    "description" : "",
    "placeholders" : null
  },
  "tags.help_text" : {
    "message" : "",
    "description" : "",
    "placeholders" : null
  },
  "tags.inline_help_text" : {
    "message" : "",
    "description" : "",
    "placeholders" : null
  },
  "tags.label" : {
    "message" : "Tags",
    "description" : "",
    "placeholders" : null
  },
  "tags.placeholder" : {
    "message" : "",
    "description" : "",
    "placeholders" : null
  },
  "title.help_text" : {
    "message" : "",
    "description" : "",
    "placeholders" : null
  },
  "title.inline_help_text" : {
    "message" : "",
    "description" : "",
    "placeholders" : null
  },
  "title.label" : {
    "message" : "Title",
    "description" : "",
    "placeholders" : null
  },
  "title.placeholder" : {
    "message" : "",
    "description" : "",
    "placeholders" : null
  },
  "website_pages.default" : {
    "message" : "",
    "description" : null,
    "placeholders" : null
  },
  "website_pages.help_text" : {
    "message" : "",
    "description" : null,
    "placeholders" : null
  },
  "website_pages.inline_help_text" : {
    "message" : "",
    "description" : null,
    "placeholders" : null
  },
  "website_pages.label" : {
    "message" : "",
    "description" : null,
    "placeholders" : null
  },
  "website_pages.placeholder" : {
    "message" : "",
    "description" : null,
    "placeholders" : null
  }
}