[ {
  "id" : "title",
  "name" : "title",
  "display_width" : null,
  "label" : "Title",
  "help_text" : "",
  "inline_help_text" : "",
  "required" : false,
  "locked" : false,
  "validation_regex" : "",
  "validation_error_message" : "",
  "placeholder" : "",
  "allow_new_line" : false,
  "show_emoji_picker" : false,
  "type" : "text",
  "default" : "GET IN TOUCH"
}, {
  "id" : "description",
  "name" : "description",
  "display_width" : null,
  "label" : "Description",
  "help_text" : "",
  "inline_help_text" : "",
  "required" : false,
  "locked" : false,
  "type" : "richtext",
  "default" : "Please fill out the form and we will get back to you with more details!"
}, {
  "id" : "form_field",
  "name" : "form_field",
  "display_width" : null,
  "label" : "Form field",
  "help_text" : "",
  "inline_help_text" : "",
  "required" : false,
  "locked" : false,
  "type" : "form",
  "default" : {
    "form_id" : "b05f40d3-1ff3-45cb-a20e-8a8c9d408ac5",
    "response_type" : "inline",
    "message" : "Thanks for submitting the form.",
    "gotowebinar_webinar_key" : null,
    "form_type" : "HUBSPOT"
  }
}, {
  "id" : "form_alignment",
  "name" : "form_alignment",
  "display_width" : null,
  "label" : "Form Alignment",
  "help_text" : "",
  "inline_help_text" : "",
  "required" : false,
  "locked" : false,
  "display" : "select",
  "placeholder" : "",
  "choices" : [ [ "flex-start", "Left" ], [ "flex-end", "Right" ], [ "center", "Center" ] ],
  "multiple" : false,
  "reordering_enabled" : true,
  "preset" : null,
  "type" : "choice",
  "default" : "flex-start"
}, {
  "id" : "styles",
  "name" : "styles",
  "display_width" : null,
  "label" : "Styles",
  "required" : false,
  "locked" : false,
  "children" : [ {
    "id" : "styles.section_show_hide_",
    "name" : "section_show_hide_",
    "display_width" : null,
    "label" : "Section [ Show | Hide ]",
    "required" : false,
    "locked" : false,
    "display" : "checkbox",
    "type" : "boolean",
    "default" : true
  }, {
    "id" : "6f45855e-e682-5112-579a-430d5dd872ce",
    "name" : "overlay_show_hide_",
    "display_width" : null,
    "label" : "Overlay [ Show | Hide ]",
    "required" : false,
    "locked" : false,
    "display" : "checkbox",
    "type" : "boolean",
    "default" : true
  }, {
    "id" : "styles.background_image_field",
    "name" : "background_image_field",
    "display_width" : null,
    "label" : "Background Image",
    "help_text" : "",
    "inline_help_text" : "",
    "required" : false,
    "locked" : false,
    "type" : "backgroundimage",
    "default" : {
      "src" : "",
      "background_position" : "MIDDLE_CENTER",
      "background_size" : "cover"
    }
  }, {
    "id" : "styles.desktop_spacing",
    "name" : "desktop_spacing",
    "display_width" : null,
    "label" : "Desktop Spacing",
    "required" : false,
    "locked" : false,
    "type" : "spacing",
    "default" : { }
  }, {
    "id" : "7f2f1ffd-2075-d57d-5982-23b86d8bd177",
    "name" : "tablet_spacing",
    "display_width" : null,
    "label" : "Tablet Spacing",
    "required" : false,
    "locked" : false,
    "type" : "spacing",
    "default" : { }
  }, {
    "id" : "adf6e404-3d20-1978-2ddb-c771c6001729",
    "name" : "mobile_spacing",
    "display_width" : null,
    "label" : "Mobile Spacing",
    "required" : false,
    "locked" : false,
    "type" : "spacing",
    "default" : { }
  }, {
    "id" : "fab2ac7c-2df9-9de9-783c-0b90f8655c1b",
    "name" : "color_settings",
    "display_width" : null,
    "label" : "Color Settings",
    "required" : false,
    "locked" : false,
    "children" : [ {
      "id" : "styles.color_settings.form_background_color",
      "name" : "form_background_color",
      "display_width" : null,
      "label" : "Form Background Color",
      "help_text" : "",
      "inline_help_text" : "",
      "required" : false,
      "locked" : false,
      "type" : "color",
      "default" : {
        "color" : "#ffffff",
        "opacity" : 100
      }
    }, {
      "id" : "10b921cc-5055-13ac-854d-a42cf447157e",
      "name" : "title_color",
      "display_width" : null,
      "label" : "Title Color",
      "required" : false,
      "locked" : false,
      "type" : "color",
      "default" : {
        "color" : null,
        "opacity" : null
      }
    }, {
      "id" : "54d7774d-ef7f-21e8-eb7d-779e1d282992",
      "name" : "paragraph_text_color",
      "display_width" : null,
      "label" : "Paragraph Text Color",
      "required" : false,
      "locked" : false,
      "type" : "color",
      "default" : {
        "color" : null,
        "opacity" : null
      }
    } ],
    "tab" : "STYLE",
    "expanded" : false,
    "type" : "group",
    "default" : {
      "title_color" : {
        "color" : null,
        "opacity" : null
      },
      "paragraph_text_color" : {
        "color" : null,
        "opacity" : null
      }
    }
  } ],
  "tab" : "STYLE",
  "expanded" : false,
  "type" : "group"
} ]