{
  "global" : false,
  "content_types" : [ "LANDING_PAGE", "SITE_PAGE" ],
  "host_template_types" : [ "PAGE" ],
  "module_id" : 158512479314,
  "label" : "Form with Background Image LP",
  "is_available_for_new_content" : true
}